<svg width="84" height="84" viewBox="0 0 84 84" fill="none" xmlns="http://www.w3.org/2000/svg">
<circle cx="41.7453" cy="41.7453" r="40.9953" fill="white" stroke="#CC9833" stroke-width="1.5"/>
<path d="M24.8553 25H58.2516C58.7436 25 59.2156 25.1955 59.5635 25.5434C59.9114 25.8914 60.1069 26.3633 60.1069 26.8553V56.5409C60.1069 57.033 59.9114 57.5049 59.5635 57.8528C59.2156 58.2008 58.7436 58.3962 58.2516 58.3962H24.8553C24.3633 58.3962 23.8914 58.2008 23.5434 57.8528C23.1955 57.5049 23 57.033 23 56.5409V26.8553C23 26.3633 23.1955 25.8914 23.5434 25.5434C23.8914 25.1955 24.3633 25 24.8553 25ZM35.9874 41.6981C35.9874 43.1743 36.5738 44.5901 37.6177 45.6339C38.6615 46.6777 40.0773 47.2642 41.5535 47.2642C43.0297 47.2642 44.4454 46.6777 45.4892 45.6339C46.5331 44.5901 47.1195 43.1743 47.1195 41.6981H56.3962V28.7107H26.7107V41.6981H35.9874Z" fill="#CC9833"/>
</svg>
