<svg width="84" height="84" viewBox="0 0 84 84" fill="none" xmlns="http://www.w3.org/2000/svg">
<circle cx="41.7453" cy="42.1535" r="40.9953" fill="white" stroke="#CC9833" stroke-width="1.5"/>
<path d="M55.6606 41.2246H59.3713C59.3713 31.7067 52.1856 24.5283 42.6547 24.5283V28.239C50.1911 28.239 55.6606 33.6993 55.6606 41.2246Z" fill="#CC9833"/>
<path d="M42.6728 35.6605C46.5746 35.6605 48.2388 37.3247 48.2388 41.2265H51.9495C51.9495 35.243 48.6562 31.9498 42.6728 31.9498V35.6605ZM49.0218 45.7591C48.6652 45.4351 48.1968 45.2623 47.7152 45.2771C47.2337 45.292 46.7768 45.4935 46.441 45.8389L42.0011 50.4049C40.9324 50.2008 38.784 49.531 36.5724 47.325C34.3608 45.1116 33.691 42.9575 33.4925 41.8963L38.0548 37.4546C38.4007 37.119 38.6024 36.662 38.6173 36.1803C38.6322 35.6987 38.4591 35.2301 38.1346 34.8738L31.2791 27.3355C30.9545 26.9781 30.5033 26.7613 30.0214 26.7312C29.5396 26.701 29.0649 26.8599 28.6983 27.1741L24.6722 30.6269C24.3514 30.9488 24.16 31.3773 24.1341 31.831C24.1063 32.2949 23.5757 43.2822 32.0954 51.8057C39.5279 59.2363 48.8381 59.78 51.4022 59.78C51.7769 59.78 52.007 59.7688 52.0682 59.7651C52.5219 59.7397 52.9501 59.5474 53.2705 59.2252L56.7214 55.1973C57.0359 54.8309 57.1951 54.3564 57.1653 53.8745C57.1355 53.3926 56.919 52.9413 56.5619 52.6165L49.0218 45.7591Z" fill="#CC9833"/>
</svg>
