<svg width="42" height="42" viewBox="0 0 42 42" fill="none" xmlns="http://www.w3.org/2000/svg">
<path d="M21 22.75C23.8995 22.75 26.25 20.3995 26.25 17.5C26.25 14.6005 23.8995 12.25 21 12.25C18.1005 12.25 15.75 14.6005 15.75 17.5C15.75 20.3995 18.1005 22.75 21 22.75Z" stroke="#434343" stroke-width="2" stroke-linecap="round" stroke-linejoin="round"/>
<path d="M21 3.5C17.287 3.5 13.726 4.975 11.1005 7.60051C8.475 10.226 7 13.787 7 17.5C7 20.811 7.7035 22.9775 9.625 25.375L21 38.5L32.375 25.375C34.2965 22.9775 35 20.811 35 17.5C35 13.787 33.525 10.226 30.8995 7.60051C28.274 4.975 24.713 3.5 21 3.5V3.5Z" stroke="#434343" stroke-width="2" stroke-linecap="round" stroke-linejoin="round"/>
</svg>
